…
The above table counts the number of incidents by year. We can see that 2011 had the most amount of incidents.

animal_rescue %>% 
  group_by(animal_group_parent) %>% 
  summarise(count = n()) %>% #group_by and summarise will produce a new column with the count in each animal group
  mutate(percent = round(100*count/sum(count),2)) %>% # mutate adds a new column; here we calculate the percentage
  arrange(desc(percent)) # arrange() sorts the data by percent.

## # A tibble: 28 × 3
##    animal_group_parent              count percent
##    <chr>                            <int>   <dbl>
##  1 Cat                               4232   48.4 
##  2 Bird                              1803   20.6 
##  3 Dog                               1341   15.3 
##  4 Fox                                455    5.2 
##  5 Unknown - Domestic Animal Or Pet   215    2.46
##  6 Horse                              201    2.3 
##  7 Deer                               152    1.74
##  8 Unknown - Wild Animal              102    1.17
##  9 Squirrel                            75    0.86
## 10 Unknown - Heavy Livestock Animal    50    0.57
## # … with 18 more rows
## # ℹ Use `print(n = ...)` to see more rows
…
