…
In this project, we will conduct an Exploratory Data Analysis of the IMDB movies dataset. We will first understand the data at hand, look at summary statistics, and then create fun visualizations. Let’s start!

Loading the data

We will look at a subset sample of movies, taken from the Kaggle IMDB 5000 movie dataset

movies <- read_csv(here::here("data","movies.csv"))
movies

## # A tibble: 2,961 × 11
##    title genre direc…¹  year durat…²  gross budget cast_…³  votes reviews rating
##    <chr> <chr> <chr>   <dbl>   <dbl>  <dbl>  <dbl>   <dbl>  <dbl>   <dbl>  <dbl>
##  1 Avat… Acti… James …  2009     178 7.61e8 2.37e8    4834 8.86e5    3777    7.9
##  2 Tita… Drama James …  1997     194 6.59e8 2   e8   45223 7.93e5    2843    7.7
##  3 Jura… Acti… Colin …  2015     124 6.52e8 1.5 e8    8458 4.18e5    1934    7  
##  4 The … Acti… Joss W…  2012     173 6.23e8 2.2 e8   87697 9.95e5    2425    8.1
##  5 The … Acti… Christ…  2008     152 5.33e8 1.85e8   57802 1.68e6    5312    9  
##  6 Star… Acti… George…  1999     136 4.75e8 1.15e8   37723 5.35e5    3917    6.5
##  7 Star… Acti… George…  1977     125 4.61e8 1.1 e7   13485 9.11e5    1752    8.7
##  8 Aven… Acti… Joss W…  2015     141 4.59e8 2.5 e8   92000 4.63e5    1752    7.5
##  9 The … Acti… Christ…  2012     164 4.48e8 2.5 e8  106759 1.14e6    3514    8.5
## 10 Shre… Adve… Andrew…  2004      93 4.36e8 1.5 e8    1148 3.15e5     688    7.2
## # … with 2,951 more rows, and abbreviated variable names ¹​director, ²​duration,
## #   ³​cast_facebook_likes
## # ℹ Use `print(n = ...)` to see more rows
…
